can_tools.c:19:6:CAN_FilterConfig	8	static
can_tools.c:31:6:CAN_Start	8	static
can_tools.c:51:6:CAN_FilterDoubleID	64	static
can_tools.c:91:6:HAL_CAN_TxMailbox0CompleteCallback	24	static
can_tools.c:112:6:HAL_CAN_TxMailbox1CompleteCallback	24	static
can_tools.c:133:6:HAL_CAN_TxMailbox2CompleteCallback	24	static
can_tools.c:154:6:CAN_SendMessage	40	static
can_tools.c:203:6:CAN1_GetMessage	48	static
